10000000  0.007377 
20000000  0.009625 
30000000  0.016208 
40000000  0.022901 
50000000  0.028057 
60000000  0.032689 
70000000  0.038190 
80000000  0.042431 
90000000  0.047433 
100000000  0.052346 
110000000  0.058164 
120000000  0.062831 
130000000  0.068975 
140000000  0.072760 
150000000  0.077634 
160000000  0.084340 
170000000  0.090627 
180000000  0.094324 
190000000  0.097952 
200000000  0.105734 
210000000  0.111294 
220000000  0.115712 
230000000  0.120426 
240000000  0.122915 
250000000  0.129326 
260000000  0.138051 
270000000  0.141880 
280000000  0.148538 
290000000  0.153848 
300000000  0.159310 
310000000  0.163518 
320000000  0.168225 
330000000  0.174677 
340000000  0.179276 
350000000  0.185150 
360000000  0.189738 
370000000  0.193569 
380000000  0.199797 
390000000  0.199244 
400000000  0.210942 
410000000  0.216261 
420000000  0.219404 
430000000  0.226476 
440000000  0.231511 
450000000  0.237312 
460000000  0.243043 
470000000  0.248233 
480000000  0.252904 
490000000  0.257375 
500000000  0.260422 
510000000  0.269083 
520000000  0.274007 
530000000  0.279176 
540000000  0.284714 
550000000  0.290024 
560000000  0.295319 
570000000  0.299980 
580000000  0.305566 
590000000  0.310931 
600000000  0.316392 
610000000  0.321197 
620000000  0.326637 
630000000  0.331607 
640000000  0.336749 
650000000  0.341953 
660000000  0.347006 
670000000  0.352536 
680000000  0.357983 
690000000  0.363291 
700000000  0.367932 
710000000  0.373394 
720000000  0.378764 
730000000  0.384180 
740000000  0.388978 
750000000  0.394037 
760000000  0.399756 
770000000  0.401757 
780000000  0.408939 
790000000  0.415010 
800000000  0.413078 
810000000  0.425896 
820000000  0.425728 
830000000  0.434641 
840000000  0.438004 
850000000  0.445828 
860000000  0.452148 
870000000  0.454829 
880000000  0.461523 
890000000  0.461904 
900000000  0.473613 
910000000  0.477245 
920000000  0.482684 
930000000  0.488791 
940000000  0.493583 
950000000  0.496690 
960000000  0.503197 
970000000  0.509910 
980000000  0.514972 
990000000  0.520332 
